{
    "$schema": "https://schema.management.azure.com/schemas/2018-05-01/subscriptionDeploymentTemplate.json#",
    "contentVersion": "1.0.0.0",
    "parameters": {
        "principalId": {
            "type": "String",
            "metadata": {
                "description": "Output from 1st command"
            }
        }
    },
    "variables": {},
    "resources": [
        {
            "type": "Microsoft.Authorization/roleAssignments",
            "apiVersion": "2021-04-01-preview",
            "name": "[guid(subscription().id)]",
            "properties": {
                "principalId": "[parameters('principalId')]",
                "roleDefinitionId": "[subscriptionResourceId('Microsoft.Authorization/roleDefinitions', '8e3af657-a8ff-443c-a75c-2fe8c4bcb635')]"
            }
        }
    ]
}